GameOfThrones,106,false;o,t,/Yi,o,t,/Yi,y,i,/Ey,Y,i,/EY,y,t,/ot,Y,i,/ot,Y,i,/yi,E,y,/Yi,E,y,/Yy,t,o,
ToZanarkand,83,false;uax,f,h,k,xy,C,vt,pyz,d,G,j,zt,x,rC,tk,o,dk,s,fk,G,h8,w,G,fu,d9,e,y,f,d,a5,9,w,e,r,y,f0,r,u,a,fo,g,h8,w,G,hu,j9,e,y,h,jy,k5,9,w,e,r,y,f0,r,u,a,fo,G,h8,w,G,fu,d9,e,y,f,d,a5,9,w,e,or,p,au8,w,aut,w,aur,w,a9,p,d,ot6,o,I,y,u8,w,t,u,o,s,f,u,o,s,f,h,ej,u,p,a,sx,f,hjx,t,iz,o,pl,s,whk,y,o,p,av,d,vx0,r,u,i,o,a,f,G,k
CanYouFeelTheLove,80,false;tf,rd,h,ge,-,gw,f,s,o,qp,-,0o,s,o,u,y7,u8,i9,o0,-,pq,a,s,d,s0,o,-,qp,a,s,d,ws0,8,-,qp,a,s,s,d,0s,o,f,g9,f,d,f,wd,r,-,qp,a,s,d,0s,o,-,pq,a,s,d,0ws,8,-,qp,a,s,o,o,0h,f,s,d,-,9qg,f,d,f,wrd,q,o,0th,f,wrd,h,etf,us,ip,-,q,0t,o,s,eg,qf,daw,q,0,9,-,qe,p,a,ws,o,o,0eh,d,f,s,qes,s,p,-,g9,0f,qd,0f,wrd,q,0,9,-,o,0th,f,wrd,h,etf,us,ip,-,e,0t,os,eg,qf,daw,q,0,9,-,qe,p,a,ws,o,o,0eh,d,f,s,qes,s,p,o,-,g9,0f,qd,qws,8es,8w,t,f,dr,h,ge,-,gw,f,s,o,qp,-,o0,s,o,u,y7,8u,9i,0o,qe,p,a,ws,o,o,0eh,d,f,s,qes,s,p,o,-,9g,0f,qd,qws,0esi,y,8ues
CanYouFeelTheLoveNoSpace,80,false;tf,rd,h,ge,gw,f,s,o,qp,0o,s,o,u,y7,u8,i9,o0,pq,a,s,d,s0,o,qp,a,s,d,ws0,8,qp,a,s,s,d,0s,o,f,g9,f,d,f,wd,r,qp,a,s,d,0s,o,pq,a,s,d,0ws,8,qp,a,s,o,o,0h,f,s,d,9qg,f,d,f,wrd,q,o,0th,f,wrd,h,etf,us,ip,q,0t,o,s,eg,qf,daw,q,0,9,qe,p,a,ws,o,o,0eh,d,f,s,qes,s,p,g9,0f,qd,0f,wrd,q,0,9,o,0th,f,wrd,h,etf,us,ip,e,0t,os,eg,qf,daw,q,0,9,qe,p,a,ws,o,o,0eh,d,f,s,qes,s,p,o,g9,0f,qd,qws,8es,8w,t,f,dr,h,ge,gw,f,s,o,qp,o0,s,o,u,y7,8u,9i,0o,qe,p,a,ws,o,o,0eh,d,f,s,qes,s,p,o,9g,0f,qd,qws,0esi,y,8ues
PiratesOfTheCar.,185,false;e,t,y,y,y,u,i,i,i,o,u,u,y,t,t,y,-,e,t,y,y,y,u,i,i,i,o,u,u,y,t,y,-,e,t,y,y,y,i,o,o,o,p,P,P,p,o,p,y,y,u,i,i,o,p,y,y,i,u,u,i,y,u,-
StairwayToHeaven,120,true;e,t,u,p,aW,u,t,a,ws,u,t,s,IQ,y,e,I,qu,t,e,u,t,e,w5,e6,6,6q
HarryPotter,100,false;r,u0,o,I,u0,a,p0,0I,u0,o,I,0Y,i,r70,r,u0,o,I,u0,a,dy9wE,S,st8qW,O,80eY,a,P,p0Q*,o,uo,w,u0,a,aw07,o,aw07,o,sw07,a,w08,P,I,ow07,a,P,w08E,r,aw07,o,aw07,o,aw07,0,dw9^,S,s8q0,O,sw07,a,P,0EQ*,o,uw0,u3,-,a,fu,h,G,fu,k,ju,uG,fu,h,G,uD,g,aru,a,fu,h,G,fu,k,zdyoP,L,lstiO,H,ltup,k,J,jITO,h,fh,o,fu,h,kour,h,kour,h,lour,k,outJ,G,hour,k,J,outP,a,kour,h,kour,h,kour,h,zoyE,L,ltiu,H,lour,k,J,PITO,h,fou,u0
Imagine,72,false;10w,8,w0,8,w0,8,3wr,8,4qe,8,qe,8,qe,8,4qe,E,r,10w,8,w0,8,w0,8,3wr,8,4qe,8,qe,8,qe,8,4qe,E,r,-,10w,8,w0,8,w0,8,3wr,8,4qe,8,qe,8,qe,8,4qe,E,r,10w,8,w0,8,w0,8,3wr,8,4qe,8,qe,8,qe,8,4qe,E,r,10w,8,w0,8,w0,8,3wr,8,4qe,8,qe,8,qe,8,4qe,E,r,10w,8,w0,8,w0,8,3wr,8,4qe,8,qe,8,qe,8,4qe,8,qe,8,qe,8,qe,8,te4,q,te,4q,te3,q,te,q3,teq2,9,teg,29,teq1,8,teq,18,ry5,w,ry,w,ry5,w,tu,w,yiw,-,te4,q,te,q,rw5,9,rw,95,tw1,0,rw,0,3EW,0,yw,0,te4,q,te,q,rw5,8,rw,95,tw1,0,rw,0,3EW,0,yw,0,tw4,q,tw,q,rw5,9,rw,95,tw1,0,rw,0,3EW,0,yw,0,te4,q,te,q,rw5,9,rw,9,4,tw01,8,2,8,1,8,2,8
LOTR,80,false;t,y,80tu,o,70ru,y,68tu,56,t,u,o,qeip,s,wroa,o,80tu,i,u,79ry,t,y,80tu,0,70ru,y,68tu,58,t,u,o,qeip,qeip,p,o,u,70ru,680etu,e,t,u,8,6,579wry,w,r,y,7,5,80tu
